<svg xmlns="http://www.w3.org/2000/svg" width="493" height="566" fill="none">
    <g fill-rule="evenodd" clip-path="url(#a)" clip-rule="evenodd">
        <path fill="#fff" d="M207.036 148.885 189 130.849l30.017-30.016 18.035 18.035-30.016 30.017Z"/>
        <path fill="#fff" d="m245.467 246.793-71.987-71.987 73.088-73.088 71.987 71.988-73.088 73.087Z"/>
        <path fill="#D96500"
              d="m246.5 101.623 14.142-14.142L246.5 73.34l14.849-14.85L246.5 43.64l14.142-14.142L246.5 15.356 261.349.506l28.992 28.992-14.85 14.85 28.992 28.99-14.142 14.143 14.142 14.142-14.849 14.849-14.143-14.142-14.142 14.142-14.849-14.849Zm0-86.267-14.142 14.142-14.849-14.85L231.651.508 246.5 15.356Z"/>
        <path fill="#F99535"
              d="m246.5 15.356 14.142 14.142L246.5 43.64l14.849 14.85L246.5 73.338l14.142 14.142-14.142 14.142-14.849 14.849-14.142-14.142 14.849-14.85-14.849-14.848 14.142-14.143-14.142-14.142 14.849-14.849L246.5 15.356Z"/>
        <path fill="#F7CA4D" d="m217.509 14.649 14.849 14.849-14.849 14.85-14.849-14.85 14.849-14.85Z"/>
        <path fill="#D96500" d="m217.509 44.347 14.142 14.142-14.142 14.143-14.142-14.143 14.142-14.142Z"/>
        <path fill="#FCF2D7"
              d="m318.625 173.748-14.142-14.142 14.142-14.142 14.142 14.142-14.142 14.142ZM203.367 58.49l14.142 14.142L202.66 87.48l-14.142-14.142 14.849-14.85v.002Z"/>
        <path fill="#D96500"
              d="m217.509 72.632 14.849 14.85-14.849 14.848-14.142 14.142-14.849-14.849 14.142-14.142 14.849-14.85v.001Z"/>
        <path fill="#FCF2D7" d="m318.625 173.748 14.849 14.849-14.849 14.849-14.849-14.849 14.849-14.849Z"/>
        <path fill="#D96500"
              d="m333.474 188.597 14.143 14.142-14.85 14.849 28.992 28.992-14.142 14.142-14.143 14.142-14.849 14.849-14.142-14.142-14.142 14.142-14.849-14.849-14.85 14.849-14.142-14.142 14.85-14.849-14.85-14.849 14.142-14.142-14.142-14.143 14.85-14.849 14.142 14.142 14.142-14.142 14.142-14.142 14.849 14.849 14.849-14.849Z"/>
        <path fill="#F9E4A5" d="m289.634 202.739-14.142 14.142-14.142-14.142 14.141-14.142 14.143 14.142Z"/>
        <path fill="#FCF2D7"
              d="m347.617 260.722 28.991 28.991-14.142 14.142 14.849 14.85-14.849 14.849 14.142 14.142-28.992 28.991-14.142-14.142 14.849-14.849-14.849-14.849 14.142-14.142-14.142-14.142 14.849-14.85-14.849-14.849 14.143-14.142Zm-159.1-101.116-14.142-14.142 14.849-14.85 14.142 14.142-14.849 14.85Z"/>
        <path fill="#fff" d="m303.002 164.584-44.868-44.869L275.849 102l44.869 44.869-17.716 17.715Z"/>
        <path fill="#FEFFFE"
              d="m333.474 274.864 14.849 14.849-14.849 14.85 14.142 14.142-14.142 14.142 14.849 14.849-14.849 14.849-14.142 14.142-14.849-14.849-14.849 14.849-14.143 14.143-14.142-14.143-14.849 14.85-14.849-14.85-14.142 14.143-28.992-28.992-14.849 14.849-14.142-14.142-14.849-14.849 14.849-14.849-14.142-14.142 14.142-14.143-14.849-14.849 14.849-14.849 14.849 14.849 14.142-14.142 14.143 14.142 14.849 14.849 14.849-14.849 14.142 14.142 14.142-14.142 14.849 14.849 14.85-14.849 14.142-14.142 14.142 14.142 14.849-14.849Z"/>
        <path fill="#F99535"
              d="m477.724 448.812-14.142-14.142-43.134 43.134-28.991-28.992 14.142-14.142-14.142-14.142 14.849-14.849-28.991-28.992 14.142-14.142 28.991 28.992 14.85-14.85 57.275 57.276-14.849 14.849Z"/>
        <path fill="#FCF2D7" d="m188.517 159.606 14.849 14.849-14.142 14.142-14.849-14.849 14.142-14.142Z"/>
        <path fill="#F9B243" d="m231.651 202.739-14.142 14.142-14.142-14.142 14.142-14.142 14.142 14.142Z"/>
        <path fill="#F99535"
              d="m231.651 202.739 14.849 14.849 14.142 14.143-14.142 14.142 14.85 14.849-14.85 14.849 14.142 14.142-14.142 14.142-14.142-14.142-14.849-14.849-14.849 14.849-14.143-14.142 14.85-14.849-14.85-14.849 28.992-28.992 14.142-14.142Z"/>
        <path fill="#D96500"
              d="m376.608 347.696 14.849 14.849-14.142 14.142 28.991 28.992-14.849 14.849 14.142 14.142-14.142 14.142 28.991 28.992-14.849 14.849-28.991 28.991-14.142-14.142-28.992 28.992-14.849-14.85-14.142 14.142-28.992 28.992-14.142-14.142 14.142-14.142-14.849-14.85-14.142 14.142-14.142-14.142-14.849 14.85 14.142 14.142-14.142 14.142-28.992-28.992-14.142-14.142-14.849 14.85-28.991-28.992-14.143 14.142-43.84-43.84-14.142 14.142-28.992-28.992-14.142-14.142-14.85-14.849 14.143-14.142 43.84 43.841 14.143-14.143 28.991 28.992 14.849-14.849-28.991-28.992 14.142-14.142-14.85-14.849 28.992-28.992-14.142-14.142 14.849-14.849 14.143 14.142 14.849 14.849 14.142-14.142 14.142 14.142 14.849 14.85-14.142 14.142 14.142 14.142-14.849 14.849 43.841 43.841 28.991-28.992-14.849-14.849 14.849-14.849-14.142-14.142 14.142-14.142 14.849-14.85 14.142 14.143 14.143-14.143 14.849 14.85 14.849-14.85 14.142-14.142 14.142 14.142 28.992-28.991Zm101.116 101.116 14.849 14.85-14.142 14.142-14.849-14.85-28.992 28.992-14.142-14.142 43.134-43.134 14.142 14.142ZM174.375 173.748l14.849 14.849 14.143 14.142 14.142 14.142-28.992 28.992 14.85 14.849-14.85 14.849-14.142 14.142-14.849-14.849-14.142-14.142 14.142-14.142-14.142-14.142 28.991-28.992-14.849-14.849 14.849-14.849Z"/>
        <path fill="#F7CA4D" d="m290.341 289.713-14.85 14.849-14.849-14.849 14.85-14.849 14.849 14.849Z"/>
        <path fill="#F9E4A5" d="m232.358 289.713-14.849 14.849-14.849-14.849 14.849-14.849 14.849 14.849Z"/>
        <path fill="#F99535"
              d="m319.332 376.687-14.849 14.85-14.849-14.85 14.849-14.849 14.849 14.849Zm101.116 101.117 14.142 14.142-14.849 14.849-14.142-14.142 14.849-14.849Z"/>
        <path fill="#FCF2D7"
              d="m145.384 260.722 14.142 14.142-14.849 14.849-14.142-14.142 14.849-14.849Zm-.707 28.991 14.849 14.849-14.142 14.143 14.142 14.142-14.849 14.849-14.142 14.142-14.143-14.142 14.143-14.142-14.849-14.849 28.991-28.992Z"/>
        <path fill="#F99535"
              d="m246.5 391.537-14.142 14.142 14.142 14.142-14.849 14.849 14.849 14.849-28.991 28.992-43.841-43.841 14.849-14.849-14.142-14.142 14.142-14.142-14.849-14.85 14.849-14.849 28.992 28.992 14.142-14.143 14.849 14.85Z"/>
        <path fill="#F9B243"
              d="m318.625 521.644-14.142-14.142 14.849-14.849 14.142 14.142-14.849 14.849ZM144.677 347.696l14.849 14.849-14.142 14.142-14.849-14.849 14.142-14.142Z"/>
        <path fill="#F99535"
              d="m318.625 521.644 14.849 14.85-14.142 14.142-14.849-14.85 14.142-14.142ZM101.543 362.545l14.142 14.142-28.991 28.992 14.849 14.849-14.142 14.142 28.991 28.992-14.849 14.849-28.991-28.992-14.142 14.143-43.841-43.841 28.99-28.991 14.85 14.849 14.143-14.142 28.991-28.992Zm159.806 188.091-14.849-14.85 14.142-14.142 14.849 14.85-14.142 14.142Zm-14.849-14.85-14.849 14.85-14.142-14.142 14.849-14.85 14.142 14.142Z"/>
        <path fill="#F9B243"
              d="m246.5 535.786 14.849 14.85-14.849 14.849-14.849-14.849 14.849-14.85ZM72.552 391.537 58.41 405.679 43.56 390.83l14.143-14.142 14.85 14.849ZM174.375 521.644l-14.849-14.849 14.142-14.142 14.849 14.849-14.142 14.142Zm0 0 14.142 14.142-14.849 14.85-14.142-14.142 14.849-14.85Z"/>
    </g>
    <defs>
        <clipPath id="a">
            <path fill="#fff" d="M0 0h493v566H0z"/>
        </clipPath>
    </defs>
</svg>