<svg width="110" height="110" viewBox="0 0 110 110" fill="none" xmlns="http://www.w3.org/2000/svg">
<g clip-path="url(#clip0_236_84)">
<rect x="97.9268" y="27.3528" width="20" height="20" transform="rotate(45 97.9268 27.3528)" fill="#4E586A"/>
<rect x="83.7842" y="13.2107" width="20" height="20" transform="rotate(45 83.7842 13.2107)" fill="#677283"/>
<rect x="69.6426" y="-0.931396" width="20" height="20" transform="rotate(45 69.6426 -0.931396)" fill="#838DA0"/>
<rect x="55.5" y="13.2107" width="20" height="20" transform="rotate(45 55.5 13.2107)" fill="#A2AAB9"/>
<rect x="41.3574" y="-0.931396" width="20" height="20" transform="rotate(45 41.3574 -0.931396)" fill="#C4CBD4"/>
<rect x="55.5" y="-15.0735" width="20" height="20" transform="rotate(45 55.5 -15.0735)" fill="#A2AAB9"/>
<rect x="69.6426" y="27.3528" width="20" height="20" transform="rotate(45 69.6426 27.3528)" fill="#838DA0"/>
<rect x="55.5" y="41.4949" width="20" height="20" transform="rotate(45 55.5 41.4949)" fill="#A2AAB9"/>
<rect x="41.3584" y="27.3525" width="20" height="20" transform="rotate(45 41.3584 27.3525)" fill="#C4CBD4"/>
<rect x="27.2158" y="13.2107" width="20" height="20" transform="rotate(45 27.2158 13.2107)" fill="#E1E4EA"/>
<rect x="83.7842" y="41.4949" width="20" height="20" transform="rotate(45 83.7842 41.4949)" fill="#677283"/>
<rect x="69.6426" y="55.637" width="20" height="20" transform="rotate(45 69.6426 55.637)" fill="#838DA0"/>
<rect x="55.5" y="69.7793" width="20" height="20" transform="rotate(45 55.5 69.7793)" fill="#A2AAB9"/>
<rect x="41.3584" y="55.637" width="20" height="20" transform="rotate(45 41.3584 55.637)" fill="#C4CBD4"/>
<rect x="27.2158" y="41.4949" width="20" height="20" transform="rotate(45 27.2158 41.4949)" fill="#E1E4EA"/>
<rect x="13.0732" y="27.3528" width="20" height="20" transform="rotate(45 13.0732 27.3528)" fill="#EAECF1"/>
<rect x="97.9268" y="55.637" width="20" height="20" transform="rotate(45 97.9268 55.637)" fill="#4E586A"/>
<rect x="112.068" y="41.4949" width="20" height="20" transform="rotate(45 112.068 41.4949)" fill="#384457"/>
<rect x="83.7842" y="69.7793" width="20" height="20" transform="rotate(45 83.7842 69.7793)" fill="#677283"/>
<rect x="69.6416" y="83.9216" width="20" height="20" transform="rotate(45 69.6416 83.9216)" fill="#838DA0"/>
<rect x="55.5" y="98.0635" width="20" height="20" transform="rotate(45 55.5 98.0635)" fill="#A2AAB9"/>
<rect x="41.3574" y="83.9214" width="20" height="20" transform="rotate(45 41.3574 83.9214)" fill="#C4CBD4"/>
<rect x="27.2158" y="69.7793" width="20" height="20" transform="rotate(45 27.2158 69.7793)" fill="#E1E4EA"/>
<rect x="13.0742" y="55.637" width="20" height="20" transform="rotate(45 13.0742 55.637)" fill="#EAECF1"/>
<rect x="-1.06836" y="41.4949" width="20" height="20" transform="rotate(45 -1.06836 41.4949)" fill="#F2F4F7"/>
<rect x="-1.06836" y="13.2107" width="20" height="20" transform="rotate(45 -1.06836 13.2107)" fill="#F2F4F7"/>
<rect x="6.00293" y="-8.00244" width="10" height="20" transform="rotate(45 6.00293 -8.00244)" fill="#F2F4F7"/>
<rect x="-1.06836" y="69.7793" width="20" height="20" transform="rotate(45 -1.06836 69.7793)" fill="#F2F4F7"/>
<rect x="-1.06836" y="98.0635" width="20" height="10" transform="rotate(45 -1.06836 98.0635)" fill="#F2F4F7"/>
<rect x="13.0732" y="83.9214" width="20" height="20" transform="rotate(45 13.0732 83.9214)" fill="#EAECF1"/>
<rect x="13.0732" y="-0.931396" width="20" height="20" transform="rotate(45 13.0732 -0.931396)" fill="#EAECF1"/>
<rect x="27.2158" y="98.0635" width="20" height="20" transform="rotate(45 27.2158 98.0635)" fill="#E1E4EA"/>
<rect x="27.2158" y="-15.0735" width="20" height="20" transform="rotate(45 27.2158 -15.0735)" fill="#E1E4EA"/>
<rect x="112.068" y="69.7793" width="20" height="20" transform="rotate(45 112.068 69.7793)" fill="#384457"/>
<rect x="112.068" y="98.0635" width="10" height="20" transform="rotate(45 112.068 98.0635)" fill="#384457"/>
<rect x="112.068" y="13.2107" width="20" height="20" transform="rotate(45 112.068 13.2107)" fill="#384457"/>
<rect x="104.997" y="-8.00244" width="20" height="10" transform="rotate(45 104.997 -8.00244)" fill="#384457"/>
<rect x="97.9268" y="-0.931396" width="20" height="20" transform="rotate(45 97.9268 -0.931396)" fill="#4E586A"/>
<rect x="97.9268" y="83.9214" width="20" height="20" transform="rotate(45 97.9268 83.9214)" fill="#4E586A"/>
<rect x="83.7842" y="98.0635" width="20" height="20" transform="rotate(45 83.7842 98.0635)" fill="#677283"/>
<rect x="83.7842" y="-15.0735" width="20" height="20" transform="rotate(45 83.7842 -15.0735)" fill="#677283"/>
</g>
<defs>
<clipPath id="clip0_236_84">
<rect width="110" height="110" fill="white"/>
</clipPath>
</defs>
</svg>
