<svg width="744" height="674" viewBox="0 0 744 674" fill="none" xmlns="http://www.w3.org/2000/svg">
<g clip-path="url(#clip0_242_2612)">
<rect x="434.816" y="-203.714" width="159.743" height="159.743" transform="rotate(25 434.816 -203.714)" fill="#FB9637"/>
<rect x="579.592" y="-136.204" width="159.743" height="159.743" transform="rotate(25 579.592 -136.204)" fill="#F18132"/>
<rect x="512.082" y="8.57131" width="159.743" height="159.743" transform="rotate(25 512.082 8.57131)" fill="#FB9637"/>
<rect x="367.307" y="-58.9387" width="159.743" height="159.743" transform="rotate(25 367.307 -58.9387)" fill="#FBA43E"/>
<rect x="222.53" y="-126.448" width="159.743" height="159.743" transform="rotate(25 222.53 -126.448)" fill="#FAB043"/>
<rect x="724.369" y="-68.6947" width="159.743" height="159.743" transform="rotate(25 724.369 -68.6947)" fill="#E76E2A"/>
<rect x="656.858" y="76.0813" width="159.743" height="159.743" transform="rotate(25 656.858 76.0813)" fill="#F18132"/>
<rect x="589.349" y="220.861" width="159.743" height="159.743" transform="rotate(25 589.349 220.861)" fill="#FB9637"/>
<rect x="444.572" y="153.347" width="159.743" height="159.743" transform="rotate(25 444.572 153.347)" fill="#FBA43E"/>
<rect x="299.796" y="85.8373" width="159.743" height="159.743" transform="rotate(25 299.796 85.8373)" fill="#FAB043"/>
<rect x="155.02" y="18.3273" width="159.743" height="159.743" transform="rotate(25 155.02 18.3273)" fill="#F8B840"/>
<rect x="801.636" y="143.595" width="159.743" height="159.743" transform="rotate(25 801.636 143.595)" fill="#E76E2A"/>
<rect x="734.125" y="288.371" width="159.743" height="159.743" transform="rotate(25 734.125 288.371)" fill="#F18132"/>
<rect x="666.615" y="433.146" width="159.743" height="159.743" transform="rotate(25 666.615 433.146)" fill="#FB9637"/>
<rect x="521.839" y="365.636" width="159.743" height="159.743" transform="rotate(25 521.839 365.636)" fill="#FBA43E"/>
<rect x="377.063" y="298.127" width="159.743" height="159.743" transform="rotate(25 377.063 298.127)" fill="#FAB043"/>
<rect x="232.286" y="230.613" width="159.743" height="159.743" transform="rotate(25 232.286 230.613)" fill="#F8B840"/>
<rect x="87.5099" y="163.103" width="159.743" height="159.743" transform="rotate(25 87.5099 163.103)" fill="#FCBE47"/>
</g>
<defs>
<clipPath id="clip0_242_2612">
<rect width="744" height="674" fill="white"/>
</clipPath>
</defs>
</svg>
