<svg xmlns="http://www.w3.org/2000/svg" width="92" height="92" fill="none">
    <g filter="url(#a)">
        <path stroke="#fff" stroke-width="1.5" d="m17 46 29-29 29 29-29 29z" shape-rendering="crispEdges"/>
        <path fill="#A91919" d="M40.4 23.6 46 18l5.6 5.6-5.6 5.6z"/>
        <path fill="#C54022" d="m34.8 29.2 5.6-5.6 5.6 5.6-5.6 5.6z"/>
        <path fill="#DD662B" d="m29.2 34.8 5.6-5.6 5.6 5.6-5.6 5.6z"/>
        <path fill="#EC7F32" d="m23.6 40.4 5.6-5.6 5.6 5.6-5.6 5.6z"/>
        <path fill="#FB9637" d="m29.2 46 5.6-5.6 5.6 5.6-5.6 5.6z"/>
        <path fill="#FBA43E" d="m23.6 51.6 5.6-5.6 5.6 5.6-5.6 5.6z"/>
        <path fill="#FB9637" d="m18 46 5.6-5.6 5.6 5.6-5.6 5.6z"/>
        <path fill="#EC7F32" d="m34.8 40.4 5.6-5.6 5.6 5.6-5.6 5.6z"/>
        <path fill="#FB9637" d="m40.4 46 5.6-5.6 5.6 5.6-5.6 5.6z"/>
        <path fill="#FBA43E" d="m34.8 51.6 5.6-5.6 5.6 5.6-5.6 5.6z"/>
        <path fill="#FAB043" d="m29.2 57.2 5.6-5.6 5.6 5.6-5.6 5.6z"/>
        <path fill="#DD662B" d="m40.4 34.8 5.6-5.6 5.6 5.6-5.6 5.6z"/>
        <path fill="#EC7F32" d="m46 40.4 5.6-5.6 5.6 5.6-5.6 5.6z"/>
        <path fill="#FB9637" d="m51.6 46 5.6-5.6 5.6 5.6-5.6 5.6z"/>
        <path fill="#FBA43E" d="m46 51.6 5.6-5.6 5.6 5.6-5.6 5.6z"/>
        <path fill="#FAB043" d="m40.4 57.2 5.6-5.6 5.6 5.6-5.6 5.6z"/>
        <path fill="#FABF49" d="m34.8 62.8 5.6-5.6 5.6 5.6-5.6 5.6z"/>
        <path fill="#C54022" d="m46 29.2 5.6-5.6 5.6 5.6-5.6 5.6z"/>
        <path fill="#DD662B" d="m51.6 34.8 5.6-5.6 5.6 5.6-5.6 5.6z"/>
        <path fill="#EC7F32" d="m57.2 40.4 5.6-5.6 5.6 5.6-5.6 5.6z"/>
        <path fill="#FB9637" d="m62.8 46 5.6-5.6L74 46l-5.6 5.6z"/>
        <path fill="#FBA43E" d="m57.2 51.6 5.6-5.6 5.6 5.6-5.6 5.6z"/>
        <path fill="#FAB043" d="m51.6 57.2 5.6-5.6 5.6 5.6-5.6 5.6z"/>
        <path fill="#FABF49" d="m46 62.8 5.6-5.6 5.6 5.6-5.6 5.6z"/>
        <path fill="#F9CB4E" d="m40.4 68.4 5.6-5.6 5.6 5.6L46 74z"/>
    </g>
    <defs>
        <filter id="a" width="90.8" height="90.8" x=".6" y=".6" color-interpolation-filters="sRGB" filterUnits="userSpaceOnUse">
            <feFlood flood-opacity="0" result="BackgroundImageFix"/>
            <feColorMatrix in="SourceAlpha" result="hardAlpha" values="0 0 0 0 0 0 0 0 0 0 0 0 0 0 0 0 0 0 127 0"/>
            <feOffset/>
            <feGaussianBlur stdDeviation="7.6"/>
            <feComposite in2="hardAlpha" operator="out"/>
            <feColorMatrix values="0 0 0 0 1 0 0 0 0 1 0 0 0 0 1 0 0 0 1 0"/>
            <feBlend in2="BackgroundImageFix" result="effect1_dropShadow_87_1957"/>
            <feBlend in="SourceGraphic" in2="effect1_dropShadow_87_1957" result="shape"/>
        </filter>
    </defs>
</svg>