<svg width="72" height="120" viewBox="0 0 72 120" fill="none" xmlns="http://www.w3.org/2000/svg">
<g clip-path="url(#clip0_238_314)">
<rect x="48" y="12" width="16.9706" height="16.9706" transform="rotate(-45 48 12)" fill="#A91919"/>
<rect x="36" y="24" width="16.9706" height="16.9706" transform="rotate(-45 36 24)" fill="#C54022"/>
<rect x="24" y="36" width="16.9706" height="16.9706" transform="rotate(-45 24 36)" fill="#DD662B"/>
<rect x="12" y="48" width="16.9706" height="16.9706" transform="rotate(-45 12 48)" fill="#EC7F32"/>
<rect x="12" y="72" width="16.9706" height="16.9706" transform="rotate(-45 12 72)" fill="#FBA43E"/>
<rect y="60" width="16.9706" height="16.9706" transform="rotate(-45 0 60)" fill="#FB9637"/>
<rect x="24" y="84" width="16.9706" height="16.9706" transform="rotate(-45 24 84)" fill="#FAB043"/>
<rect x="36" y="96" width="16.9706" height="16.9706" transform="rotate(-45 36 96)" fill="#FABF49"/>
<rect x="48" y="108" width="16.9706" height="16.9706" transform="rotate(-45 48 108)" fill="#F9CB4E"/>
</g>
<defs>
<clipPath id="clip0_238_314">
<rect width="72" height="120" fill="white"/>
</clipPath>
</defs>
</svg>
