<svg width="200" height="200" viewBox="0 0 200 200" fill="none" xmlns="http://www.w3.org/2000/svg">
<path d="M100.015 50L32 108M100.015 50L121.656 108M100.015 50L167 108" stroke="#A2AAB9" stroke-width="2"/>
<path d="M99.5 47.5L78.5 108.5V167.5" stroke="#A2AAB9" stroke-width="2"/>
<path d="M121 168L78.2457 110L34 168" stroke="#A2AAB9" stroke-width="2"/>
<circle cx="100" cy="43" r="21.75" fill="#FB9637" stroke="#A91919" stroke-width="2.5"/>
<circle cx="78" cy="108" r="11" fill="#E1E4EA" stroke="#A2AAB9" stroke-width="2"/>
<circle cx="122" cy="108" r="11" fill="#E1E4EA" stroke="#A2AAB9" stroke-width="2"/>
<circle cx="34" cy="108" r="11" fill="#E1E4EA" stroke="#A2AAB9" stroke-width="2"/>
<circle cx="78" cy="168" r="11" fill="#E1E4EA" stroke="#A2AAB9" stroke-width="2"/>
<circle cx="34" cy="168" r="11" fill="#E1E4EA" stroke="#A2AAB9" stroke-width="2"/>
<circle cx="166" cy="108" r="11" fill="#E1E4EA" stroke="#A2AAB9" stroke-width="2"/>
<circle cx="122" cy="168" r="11" fill="#E1E4EA" stroke="#A2AAB9" stroke-width="2"/>
</svg>
