<svg width="329" height="70" viewBox="0 0 329 70" fill="none" xmlns="http://www.w3.org/2000/svg">
<g clip-path="url(#clip0_241_335)">
<path d="M90.2926 -0.00158691H90.2746C80.9928 0.0040338 72.0926 3.69297 65.529 10.255C58.9655 16.817 55.2752 25.7155 55.2687 34.996C55.276 44.2765 58.9665 53.1748 65.5298 59.7372C72.0931 66.2995 80.9927 69.9894 90.2746 69.9968H90.2926C99.5661 69.9675 108.451 66.2699 115.007 59.7118C121.562 53.1537 125.256 44.2681 125.281 34.996C125.259 25.7233 121.566 16.8365 115.009 10.2784C108.453 3.72028 99.5666 0.0242739 90.2926 -0.00158691ZM90.2926 55.3047H90.2681C84.9618 55.2149 79.9069 53.0284 76.2082 49.2232C72.5095 45.418 70.4678 40.3035 70.5294 34.9976C70.4674 29.6914 72.5089 24.5765 76.2076 20.7709C79.9064 16.9654 84.9615 14.7787 90.2681 14.6889H90.2926C95.5788 14.808 100.605 17.0071 104.279 20.8088C107.954 24.6105 109.98 29.7079 109.919 34.9943C109.981 40.2817 107.956 45.3803 104.281 49.183C100.606 52.9858 95.5797 55.1856 90.2926 55.3047Z" fill="black"/>
<path d="M22.9809 1.14429H0L15.1579 16.3048V15.4528H22.7915C23.9959 15.3863 25.2012 15.5665 26.3336 15.9822C27.4659 16.398 28.5014 17.0405 29.3766 17.8705C30.2518 18.7005 30.9482 19.7004 31.4233 20.809C31.8983 21.9177 32.142 23.1116 32.1392 24.3177C32.1499 25.4953 31.9199 26.6627 31.4635 27.7483C31.0071 28.8339 30.3337 29.815 29.4848 30.6313L39.8039 40.9489C42.0518 38.8077 43.835 36.227 45.0426 33.3672C46.2503 30.5075 46.8565 27.4299 46.8237 24.3258C46.827 11.2546 36.6189 1.14429 22.9809 1.14429Z" fill="black"/>
<path d="M183.543 53.6887V68.8509H198.708L183.543 53.6887Z" fill="black"/>
<path d="M131.001 68.8509H146.165V16.3032L131.001 1.14099V68.8509Z" fill="black"/>
<path d="M29.4685 30.6361C27.6561 32.3164 25.2627 33.2286 22.7915 33.1808H15.1579V16.3048L0 1.14258V68.8492H15.1644V47.3914H22.9809C23.5637 47.3914 24.1236 47.3489 24.6999 47.3114L36.5846 59.1943L46.2409 68.8509H67.6855L39.7876 40.9521L29.4685 30.6361Z" fill="#39C643"/>
<path d="M183.551 1.14421H181.666L164.851 17.9566L148.036 1.14421H131.001L146.165 16.3064L164.859 34.9975L183.553 16.3048V53.6838L198.717 68.846V1.14258L183.551 1.14421Z" fill="black"/>
<path d="M254.158 16.1383H263.513V20.8719H259.342V34.5928H254.158V16.1383ZM292.606 20.9943H292.695C293.441 20.9615 294.184 21.1135 294.857 21.4366C295.531 21.7598 296.114 22.2443 296.556 22.8469L297.024 23.317L300.333 20.0084L299.948 19.5563C299.061 18.4659 297.938 17.5918 296.663 17.0001C295.388 16.4085 293.995 16.1149 292.59 16.1415H292.502C290.943 16.1825 289.42 16.6143 288.072 17.3973C286.724 18.1803 285.594 19.2894 284.787 20.6228C283.979 21.9561 283.52 23.471 283.45 25.0283C283.381 26.5855 283.704 28.1353 284.39 29.5351C285.076 30.935 286.102 32.1402 287.375 33.0399C288.648 33.9397 290.127 34.5052 291.676 34.6845C293.225 34.8638 294.793 34.6512 296.239 34.0662C297.684 33.4811 298.959 32.5425 299.946 31.3364L300.331 30.8859L297.024 27.574L296.556 28.0457C296.117 28.6479 295.536 29.1324 294.865 29.4559C294.194 29.7794 293.454 29.932 292.709 29.9C292.138 29.8933 291.573 29.7718 291.049 29.5427C290.525 29.3137 290.053 28.9817 289.66 28.5665C289.267 28.1513 288.961 27.6613 288.761 27.1258C288.561 26.5902 288.471 26.0199 288.496 25.4488C288.447 24.8806 288.517 24.3084 288.702 23.7689C288.887 23.2293 289.182 22.7342 289.569 22.3151C289.955 21.8959 290.425 21.562 290.948 21.3346C291.471 21.1072 292.036 20.9913 292.606 20.9943ZM235.958 24.7812C235.958 25.2479 235.927 25.7141 235.865 26.1768L240.172 30.4941C241.111 28.7423 241.552 26.7661 241.445 24.7812V13.1088H235.96L235.958 24.7812ZM249.155 10.9346L243.969 16.1399V34.596H249.155V20.8751H252.525V16.1415H249.162L249.155 10.9346ZM325.624 16.1318V10.9264L320.439 16.1383V34.596H325.624V20.867H328.992V16.1334L325.624 16.1318ZM310.948 16.1546C309.682 16.1357 308.439 16.4863 307.369 17.1634V10.9248L302.184 16.1367C302.184 16.1367 302.142 34.01 302.184 34.5944H307.377V25.3329C307.377 22.2952 308.169 20.9992 310.019 20.9992C311.962 20.9992 312.719 22.1973 312.719 25.2741V34.5879H317.904V24.4335C318.057 22.4765 317.555 20.5242 316.477 18.8838C315.807 18.0584 314.968 17.3869 314.015 16.9151C313.063 16.4433 312.02 16.1822 310.957 16.1497L310.948 16.1546ZM281.858 25.2415C281.854 25.8814 281.784 26.5192 281.649 27.1447H268.915C269.021 27.3889 269.149 27.6232 269.296 27.8449C269.324 27.8939 269.363 27.9445 269.395 27.9935C269.808 28.5777 270.355 29.0549 270.99 29.3854C271.624 29.7158 272.329 29.89 273.044 29.8934C274.301 29.9418 275.529 29.5046 276.472 28.6725L279.863 32.0562C277.953 33.818 275.442 34.7828 272.843 34.7527C270.375 34.7566 268.007 33.7801 266.259 32.038C264.511 30.296 263.527 27.931 263.523 25.4635C263.519 22.9959 264.496 20.6278 266.238 18.8803C267.981 17.1327 270.346 16.1487 272.814 16.1448C274.009 16.1358 275.195 16.3653 276.3 16.8199C277.406 17.2745 278.41 17.9451 279.253 18.7923C280.096 19.6396 280.762 20.6465 281.211 21.7541C281.66 22.8618 281.884 24.0479 281.869 25.2431L281.858 25.2415ZM276.41 23.4296C276.179 22.6778 275.698 22.0271 275.047 21.5848C274.397 21.1424 273.615 20.9348 272.83 20.9959C272.032 20.9589 271.243 21.1741 270.574 21.6109C269.905 22.0478 269.391 22.6841 269.105 23.4296H276.41Z" fill="#1D1D1B"/>
<path d="M240.186 30.4958C240.106 30.628 240.023 30.7569 239.933 30.881C239.038 32.0923 237.869 33.0738 236.52 33.7449C235.172 34.416 233.684 34.7575 232.177 34.7413C230.692 34.7523 229.224 34.4226 227.886 33.7778C226.548 33.1329 225.376 32.19 224.459 31.0214C223.259 29.1698 222.693 26.9788 222.846 24.7779V13.1072L240.182 30.4925L240.186 30.4958Z" fill="#E30613"/>
<path d="M235.793 55.9494L235.945 58.9821C235.963 59.77 236.191 60.5389 236.606 61.2086H235.028C234.617 60.5191 234.414 59.7255 234.443 58.9234L234.344 56.5664C234.393 55.5661 234.061 54.5843 233.415 53.8193C232.628 53.1933 231.629 52.8961 230.628 52.9901H224.348V61.2151H222.848V42.7704H230.329C231.874 42.6859 233.4 43.1438 234.642 44.0648C235.173 44.5085 235.593 45.0699 235.869 45.7042C236.145 46.3386 236.27 47.0286 236.233 47.7195C236.278 48.7808 235.964 49.8264 235.341 50.6869C234.706 51.4828 233.817 52.0365 232.822 52.2555C233.683 52.4018 234.461 52.8583 235.009 53.5389C235.556 54.2195 235.835 55.077 235.793 55.9494ZM224.348 51.6222H230.48C231.584 51.6858 232.672 51.3368 233.534 50.6429C233.919 50.2796 234.219 49.8357 234.412 49.343C234.605 48.8503 234.687 48.321 234.652 47.7929C234.687 47.2846 234.602 46.7752 234.406 46.3052C234.209 45.8352 233.905 45.4174 233.519 45.085C232.593 44.4183 231.465 44.093 230.326 44.1644H224.348V51.6222Z" fill="#1D1D1B"/>
<path d="M249.939 54.4983V55.0157H239.635C239.605 56.4007 240.059 57.7527 240.92 58.8385C241.328 59.2866 241.831 59.6388 242.392 59.8699C242.953 60.101 243.558 60.2053 244.163 60.1753C245.114 60.2106 246.045 59.9024 246.787 59.307C247.502 58.6961 247.987 57.8594 248.161 56.9353H249.662C249.423 58.2373 248.75 59.4201 247.753 60.2912C246.731 61.1311 245.437 61.5688 244.114 61.522C243.291 61.5576 242.47 61.4032 241.715 61.0706C240.961 60.738 240.293 60.2362 239.764 59.604C238.638 58.158 238.069 56.3561 238.161 54.526C238.076 52.6964 238.644 50.8961 239.764 49.4464C240.283 48.8154 240.941 48.3136 241.688 47.9808C242.434 47.6479 243.247 47.4931 244.064 47.5285C244.89 47.4895 245.713 47.6479 246.465 47.9905C247.218 48.3331 247.877 48.8501 248.39 49.4986C249.465 50.9381 250.012 52.7033 249.941 54.4983H249.939ZM244.062 48.8751C243.492 48.8544 242.924 48.9571 242.397 49.1763C241.87 49.3955 241.397 49.7259 241.009 50.145C240.17 51.1416 239.694 52.3942 239.661 53.6969H248.39C248.375 52.4174 247.932 51.1798 247.13 50.1826C246.749 49.749 246.276 49.4065 245.745 49.1804C245.215 48.9544 244.64 48.8506 244.064 48.8768L244.062 48.8751Z" fill="#1D1D1B"/>
<path d="M262.382 50.3246V47.837H263.76V60.6912C263.868 62.2877 263.34 63.8622 262.291 65.0706C261.709 65.611 261.023 66.0257 260.274 66.2889C259.525 66.552 258.73 66.658 257.938 66.6C256.612 66.6735 255.301 66.279 254.236 65.4851C253.781 65.1082 253.408 64.6428 253.139 64.1172C252.87 63.5917 252.711 63.017 252.67 62.4279H254.095C254.384 64.3801 255.665 65.3562 257.938 65.3562C260.856 65.3562 262.315 63.8012 262.315 60.6912V58.8777C261.86 59.7065 261.184 60.3926 260.362 60.8593C259.54 61.3259 258.604 61.5548 257.659 61.5204C256.847 61.5542 256.037 61.3986 255.295 61.0657C254.553 60.7328 253.899 60.2319 253.384 59.6024C252.356 58.1078 251.806 56.3366 251.806 54.5228C251.806 52.709 252.356 50.9378 253.384 49.4432C253.899 48.8141 254.553 48.3133 255.295 47.9805C256.037 47.6476 256.847 47.4918 257.659 47.5253C258.636 47.4785 259.604 47.7187 260.446 48.2162C261.287 48.7137 261.964 49.4467 262.394 50.3246H262.382ZM253.299 54.5228C253.226 55.9957 253.657 57.4495 254.522 58.6443C254.925 59.1289 255.43 59.5193 256 59.7879C256.571 60.0566 257.194 60.197 257.824 60.1994C258.455 60.2017 259.078 60.0659 259.651 59.8015C260.223 59.537 260.731 59.1504 261.138 58.6688C261.935 57.4329 262.359 55.9934 262.359 54.5228C262.359 53.0522 261.935 51.6128 261.138 50.3768C260.731 49.8953 260.223 49.5088 259.651 49.2445C259.078 48.9802 258.454 48.8446 257.824 48.8471C257.193 48.8495 256.571 48.9901 256 49.2589C255.43 49.5277 254.925 49.9182 254.522 50.403C253.657 51.5978 253.226 53.0499 253.299 54.5228Z" fill="#1D1D1B"/>
<path d="M268.285 45.8162H266.764V43.3793H268.29L268.285 45.8162ZM268.259 61.2086H266.809V47.837H268.259V61.2086Z" fill="#1D1D1B"/>
<path d="M276.835 61.5203C276.001 61.549 275.172 61.3891 274.408 61.0525C273.645 60.7159 272.968 60.2112 272.427 59.5763C271.237 58.1672 270.627 56.3581 270.723 54.5162C270.634 52.6692 271.242 50.8563 272.427 49.4366C272.972 48.8082 273.651 48.3098 274.413 47.9779C275.176 47.646 276.003 47.4891 276.835 47.5187C277.672 47.4928 278.506 47.6512 279.276 47.9826C280.045 48.314 280.733 48.8103 281.29 49.4366C282.455 50.8661 283.053 52.6742 282.97 54.5162C283.065 56.3539 282.465 58.1601 281.29 59.5763C280.737 60.209 280.051 60.7115 279.28 61.0476C278.51 61.3838 277.675 61.5452 276.835 61.5203ZM273.475 58.6442C273.873 59.1497 274.385 59.5539 274.969 59.8239C275.552 60.094 276.192 60.2222 276.835 60.1981C277.481 60.2204 278.123 60.0915 278.711 59.8217C279.298 59.5519 279.815 59.1487 280.219 58.6442C281.109 57.4608 281.55 56.0007 281.466 54.5227C281.548 53.0369 281.107 51.5694 280.219 50.3751C279.798 49.895 279.28 49.5102 278.699 49.2466C278.117 48.983 277.486 48.8466 276.848 48.8466C276.209 48.8466 275.578 48.983 274.997 49.2466C274.416 49.5102 273.897 49.895 273.477 50.3751C272.589 51.5694 272.148 53.0369 272.229 54.5227C272.146 56.0014 272.59 57.4616 273.482 58.6442H273.475Z" fill="#1D1D1B"/>
<path d="M291.186 47.5253C291.814 47.4881 292.444 47.5818 293.034 47.8004C293.624 48.019 294.162 48.3577 294.615 48.7952C295.483 49.7875 295.924 51.0831 295.84 52.3992V61.2135H294.389V52.5266C294.389 50.0738 293.227 48.8474 290.904 48.8474C290.376 48.847 289.854 48.9575 289.372 49.1718C288.889 49.3861 288.457 49.6993 288.104 50.0912C287.257 51.1054 286.821 52.3999 286.881 53.7197V61.2135H285.432V47.8289H286.805V50.3165C287.193 49.4759 287.811 48.7619 288.587 48.2565C289.363 47.7628 290.267 47.5085 291.186 47.5253Z" fill="#1D1D1B"/>
</g>
<defs>
<clipPath id="clip0_241_335">
<rect width="329" height="70" fill="white"/>
</clipPath>
</defs>
</svg>
