{
  "team_name": "Advisors",
  "team": [
    {
      "firstName": "Future",
      "lastName": "Advisor (TBD)",
      "role": "Strategic Navigator",
      "description": "At GraphPolaris, we believe every great journey needs a guiding star. We're seeking an experienced advisor on Legal, Deal Making or Finance.",
      "thumbnail": "/images/team/future-star.png"
    },
    {
      "firstName": "Erik-Jan",
      "lastName": "van der Linden",
      "role": "Braventure",
      "description": "Active investor, mentor for startups at Braventure and founder & former CEO of MagnaView/Process Gold, Erik-Jan has extensive experience and expertise in software product development. He is the person that supports GraphPolaris with general startup advice, while providing networking access in the VC and the startup community.",
      "thumbnail": "/images/team/erik-jan.jpg"
    }
  ]
}
