{
  "team_name": "Alumni",
  "team": [
    {
      "firstName": "Daniël",
      "lastName": "Scheeper",
      "role": "Data Engineer",
      "description": "Our expert in data engineering. Daniël specializes in bridging the gap between customer databases and GraphPolaris through shaping the customers’ data to their needs. He transforms traditional databases into graph databases, bringing a unique perspective and insights to the data of our clients.",
      "thumbnail": "/images/team/daniel-2.jpg"
    },
    {
      "firstName": "Ivana",
      "lastName": "Paneva",
      "role": "User Experience Researcher",
      "description": "Our researcher in content-creation, user experience and user satisfaction. With a wide scope of knowledge fields, Ivana is passionate about improving and creating the content surrounding GraphPolaris, including this very website. She also researches how to improve user experience by evaluating how well GraphPolaris’ vision matches with users’ expectations.",
      "thumbnail": "/images/team/ivana-paneva.jpg"
    },
    {
      "firstName": "Alen",
      "lastName": "Zubic",
      "role": "Infrastructure Engineer (Relay Monkey)",
      "description": "The infrastructure specialist of GraphPolaris responsible for the smooth, fast and efficient operation and deployment of our software. With years of expertise on the role, Alen not just manages all of the infrastructure, but uses his experience and contacts to aid in making GraphPolaris the best as it can be.",
      "thumbnail": "/images/team/alen-zubic.png"
    }
  ]
}
